^C:\USERS\GLOKSHTOC\SOURCE\REPOS\HOME_WORK_17\DEBUG\HOME_WORK_17.OBJ
C:\USERS\GLOKSHTOC\SOURCE\REPOS\HOME_WORK_17\DEBUG\HOME_WORK_17.EXE
C:\USERS\GLOKSHTOC\SOURCE\REPOS\HOME_WORK_17\DEBUG\HOME_WORK_17.ILK
C:\USERS\GLOKSHTOC\SOURCE\REPOS\HOME_WORK_17\DEBUG\HOME_WORK_17.PDB
